Machine learning and cross-validation
…
method: el nombre del algoritmo que se desea emplear (http://topepo.github.io/caret/train-models-by-tag.html).

metric: las mtricas empleadas para evaluar la capacidad predictiva del modelo. Por defecto, se emplea accuracy para problemas de clasificacin y RMSE para regresin.

trControl: especificaciones adicionales sobre la forma de llevar a cabo el entrenamiento del modelo.

...: argumentos propios del algoritmo empleado.

Ilustremos cmo llevar a cabo el entrenamiento de un modelo predictivo con algunas de las tncnicas de machine learning ms usuales. Para ello, utilizaremos los datos usados para crear un modelo predictivo en cncer de mama facilitados en Kaggle (competicin) [https://www.kaggle.com/uciml/breast-cancer-wisconsin-data]. La idea es crear un modelo que prediga si el tumor es benigno o no (variable diagnosis).

library(tidyverse)
datos <- read_csv("data/breast.csv")
datos

# A tibble: 569 x 32
         id diagnosis radius_mean texture_mean perimeter_mean area_mean
      <int> <chr>           <dbl>        <dbl>          <dbl>     <dbl>
 1   842302 M                18.0         10.4          123.      1001 
 2   842517 M                20.6         17.8          133.      1326 
 3 84300903 M                19.7         21.2          130       1203 
 4 84348301 M                11.4         20.4           77.6      386.
 5 84358402 M                20.3         14.3          135.      1297 
 6   843786 M                12.4         15.7           82.6      477.
 7   844359 M                18.2         20.0          120.      1040 
 8 84458202 M                13.7         20.8           90.2      578.
 9   844981 M                13           21.8           87.5      520.
10 84501001 M                12.5         24.0           84.0      476.
# ... with 559 more rows, and 26 more variables: smoothness_mean <dbl>,
#   compactness_mean <dbl>, concavity_mean <dbl>, `concave
#   points_mean` <dbl>, symmetry_mean <dbl>, fractal_dimension_mean <dbl>,
#   radius_se <dbl>, texture_se <dbl>, perimeter_se <dbl>, area_se <dbl>,
#   smoothness_se <dbl>, compactness_se <dbl>, concavity_se <dbl>, `concave
#   points_se` <dbl>, symmetry_se <dbl>, fractal_dimension_se <dbl>,
#   radius_worst <dbl>, texture_worst <dbl>, perimeter_worst <dbl>,
#   area_worst <dbl>, smoothness_worst <dbl>, compactness_worst <dbl>,
#   concavity_worst <dbl>, `concave points_worst` <dbl>,
…
