Survival analysis with R (Part I)
…
The survfit object contains more variables, including detailed time points with the number at risk n.risk, events n.event, and censors n.censor at each time point. Therefore, the Kaplan-Meier table can be obtained by:

library(tidyverse)
km <- tibble(
  time = ans$time,
  n.risk = ans$n.risk,
  n.event = ans$n.event,
  n.censor = ans$n.censor,
  surv = ans$surv,
  upper = ans$upper,
  lower = ans$lower
)
km

# A tibble: 574 x 7
    time n.risk n.event n.censor  surv upper lower
   <dbl>  <dbl>   <dbl>    <dbl> <dbl> <dbl> <dbl>
 1     8    686       0        1     1     1     1
 2    15    685       0        1     1     1     1
 3    16    684       0        1     1     1     1
 4    17    683       0        2     1     1     1
 5    18    681       0        1     1     1     1
 6    29    680       0        1     1     1     1
 7    42    679       0        1     1     1     1
 8    46    678       0        1     1     1     1
 9    57    677       0        1     1     1     1
10    63    676       0        1     1     1     1
# ... with 564 more rows
…
