Chapter 3 Regresión lineal | Aprendizaje Automático 1
…
En general, dadas dos variables aleatorias, X e Y (piense: año y número de pasajeros), podemos definir la media condicional como el valor esperado o promedio de Y dado que X está restringido a tener un valor específico, \(x\), a partir de su rango: \(\mathbf {E} [Y \mid X = x]\). Ejemplo: \(\mathbf{E} [Ridership \mid Year = 2012]\) es el número promedio de pasajeros dado ese año = 2012. Una media condicional tiene un valor descriptivo — sabemos que el coeficiente $$para el año de nuestro modelo, 2194, representa la relación entre el número de pasajeros y el año, con la magnitud o el valor absoluto del coeficiente que indica la fuerza de la relación, positiva o negativa. Los coeficientes también se pueden utilizar para la predicción. ¿Cuántos ciclistas más deberíamos esperar en 2013? Utilice el modelo: \(\mathbf {E} [riders \mid year = 2013]\) es igual al número en 2012, 5600, más el coeficiente del año: 5600 + 2194 = 7794.

El modelo nos permite predecir, pero debemos recordar que no hay nada mágico en la predicción. Deberíamos pensar críticamente al respecto. Por un lado, asume una tendencia constante año tras año. ¿Es esta una suposición razonable?

3.8 La función de regresión

Consideremos la cantidad media de pasajeros condicionada a la temperatura (que en este conjunto de datos se ha normalizado y convertido a grados Celsius). Podemos definir una función que devolverá la media condicional. Para cualquier temperatura, \(t\), defina \(\mu (t) = \mathbf {E} [Riders \mid Temperature = t]\), que es el número medio de pasajeros cuando temperatura = \(t\). Dado que podemos variar \(t\), esto es de hecho una función, y se conoce como la función de regresión que relaciona a los pasajeros con la temperatura. Por ejemplo, \(\mu\) (.68) es el número medio de pasajeros cuando \(t\)= .68 y \(\mu\) (.05)es el número medio de pasajeros cuando \(t\)= .05, etc.

Debemos tener en cuenta que el valor real de \(\mu\) (.68) se desconoce porque es un valor de población. Existe, pero no en nuestra muestra. Entonces, nuestra estimación, \(\hat {\ mu}\) (. 68), debe basarse en los pares de Riders-Temperature que tenemos en nuestros datos: \((r_ {1}, t_ {1}), ..., ( r_ {731}, t_ {731})\). ¿Cómo podemos hacer esto exactamente? Un enfoque sería simplemente calcular las medias condicionales relevantes a partir de nuestros datos. Para encontrar \(\hat {\mu} (t)\) usando este método, simplificaremos los datos redondeando la temperatura a dos lugares decimales.

day %>% 
  group_by(temperature = round(temperature, 2)) %>%
  dplyr::summarize(mean = round(mean(count))) 

## # A tibble: 77 x 2
##    temperature  mean
##          <dbl> <dbl>
##  1        0.06   981
##  2        0.1   1201
##  3        0.11  2368
##  4        0.13  1567
##  5        0.14  1180
##  6        0.15  1778
##  7        0.16  1441
##  8        0.17  1509
##  9        0.18  1597
## 10        0.19  2049
## # ... with 67 more rows
…
