Chapter 2 Tidyverse | Aprendizaje Automático 1
…
head(iris)

##   Sepal.Length Sepal.Width Petal.Length Petal.Width Species
## 1          5.1         3.5          1.4         0.2  setosa
## 2          4.9         3.0          1.4         0.2  setosa
## 3          4.7         3.2          1.3         0.2  setosa
## 4          4.6         3.1          1.5         0.2  setosa
## 5          5.0         3.6          1.4         0.2  setosa
## 6          5.4         3.9          1.7         0.4  setosa

iris.tib <- tibble(iris)
iris.tib

## # A tibble: 150 x 5
##    Sepal.Length Sepal.Width Petal.Length Petal.Width Species
##           <dbl>       <dbl>        <dbl>       <dbl> <fct>  
##  1          5.1         3.5          1.4         0.2 setosa 
##  2          4.9         3            1.4         0.2 setosa 
##  3          4.7         3.2          1.3         0.2 setosa 
##  4          4.6         3.1          1.5         0.2 setosa 
##  5          5           3.6          1.4         0.2 setosa 
##  6          5.4         3.9          1.7         0.4 setosa 
##  7          4.6         3.4          1.4         0.3 setosa 
##  8          5           3.4          1.5         0.2 setosa 
##  9          4.4         2.9          1.4         0.2 setosa 
## 10          4.9         3.1          1.5         0.1 setosa 
## # ... with 140 more rows
…
NOTA 1: Nunca cambia los tipos de datos! (i.e. caracter a factor)
NOTA 2: El rownames desaparece

Quizás uno de los aspectos más novedosos de las tibble sea que se ha re-definido el método print() que permite, por defecto, ver las 10 primeras filas y todas las columnas que quepan en la pantalla. Esto puede cambiarse con

print(iris.tib, n = 10, width = Inf)

## # A tibble: 150 x 5
##    Sepal.Length Sepal.Width Petal.Length Petal.Width Species
##           <dbl>       <dbl>        <dbl>       <dbl> <fct>  
##  1          5.1         3.5          1.4         0.2 setosa 
##  2          4.9         3            1.4         0.2 setosa 
##  3          4.7         3.2          1.3         0.2 setosa 
##  4          4.6         3.1          1.5         0.2 setosa 
##  5          5           3.6          1.4         0.2 setosa 
##  6          5.4         3.9          1.7         0.4 setosa 
##  7          4.6         3.4          1.4         0.3 setosa 
##  8          5           3.4          1.5         0.2 setosa 
##  9          4.4         2.9          1.4         0.2 setosa 
## 10          4.9         3.1          1.5         0.1 setosa 
## # ... with 140 more rows
…
Efectivamente ambos objetos contienen la misma información

head(dd1)

##         Name Chr  Position  Log.R.Ratio B.Allele.Freq
## 1  rs1000000  12 125456933 -0.002501764   1.000000000
## 2  rs1000002   3 185118461 -0.029741180   0.000336171
## 3 rs10000023   4  95952928  0.004015533   0.460671800
## 4  rs1000003   3  99825597 -0.142527700   0.541123600
## 5 rs10000030   4 103593179  0.365104000   1.000000000
## 6 rs10000037   4  38600725 -0.005177616   0.504625300

dd2

## # A tibble: 733,202 x 5
##    Name       Chr    Position Log.R.Ratio B.Allele.Freq
##    <chr>      <chr>     <dbl>       <dbl>         <dbl>
##  1 rs1000000  12    125456933    -0.00250      1       
##  2 rs1000002  3     185118461    -0.0297       0.000336
##  3 rs10000023 4      95952928     0.00402      0.461   
##  4 rs1000003  3      99825597    -0.143        0.541   
##  5 rs10000030 4     103593179     0.365        1       
##  6 rs10000037 4      38600725    -0.00518      0.505   
##  7 rs10000041 4     165841405    -0.179        0       
##  8 rs10000042 4       5288053     0.168        0.998   
##  9 rs10000049 4     119167668    -0.00238      0       
## 10 rs1000007  2     237416793    -0.00411      0       
## # ... with 733,192 more rows
…
It is rare that you get the data in exactly the right form you need.

Often you’ll need to create some new variables or summaries.

Or maybe you just want to rename the variables or reorder the observations in order to make the data a little easier to work with.

Let us illustrate how to manage available data using NYC fligths database. nycflights13::flights data frame contains all 336,776 flights that departed from New York City in 2013. The data comes from the US Bureau of Transportation Statistics, and is documented in ?flights.

library(nycflights13)
library(tidyverse)

flights

## # A tibble: 336,776 x 19
##     year month   day dep_time sched_dep_time dep_delay arr_time sched_arr_time arr_delay carrier flight tailnum origin dest  air_time
##    <int> <int> <int>    <int>          <int>     <dbl>    <int>          <int>     <dbl> <chr>    <int> <chr>   <chr>  <chr>    <dbl>
##  1  2013     1     1      517            515         2      830            819        11 UA        1545 N14228  EWR    IAH        227
##  2  2013     1     1      533            529         4      850            830        20 UA        1714 N24211  LGA    IAH        227
##  3  2013     1     1      542            540         2      923            850        33 AA        1141 N619AA  JFK    MIA        160
##  4  2013     1     1      544            545        -1     1004           1022       -18 B6         725 N804JB  JFK    BQN        183
##  5  2013     1     1      554            600        -6      812            837       -25 DL         461 N668DN  LGA    ATL        116
##  6  2013     1     1      554            558        -4      740            728        12 UA        1696 N39463  EWR    ORD        150
##  7  2013     1     1      555            600        -5      913            854        19 B6         507 N516JB  EWR    FLL        158
##  8  2013     1     1      557            600        -3      709            723       -14 EV        5708 N829AS  LGA    IAD         53
##  9  2013     1     1      557            600        -3      838            846        -8 B6          79 N593JB  JFK    MCO        140
## 10  2013     1     1      558            600        -2      753            745         8 AA         301 N3ALAA  LGA    ORD        138
## # ... with 336,766 more rows, and 4 more variables: distance <dbl>, hour <dbl>, minute <dbl>, time_hour <dttm>
…
The first argument is a data frame.

The subsequent arguments describe what to do with the data frame, using the variable names (without quotes).

The result is a new data frame.

2.7 Filter rows

jan1 <- filter(flights, month == 1, day == 1)

R either prints out the results, or saves them to a variable. If you want to do both, you can wrap the assignment in parentheses:

(jan1 <- filter(flights, month == 1, day == 1))

## # A tibble: 842 x 19
##     year month   day dep_time sched_dep_time dep_delay arr_time sched_arr_time arr_delay carrier flight tailnum origin dest  air_time
##    <int> <int> <int>    <int>          <int>     <dbl>    <int>          <int>     <dbl> <chr>    <int> <chr>   <chr>  <chr>    <dbl>
##  1  2013     1     1      517            515         2      830            819        11 UA        1545 N14228  EWR    IAH        227
##  2  2013     1     1      533            529         4      850            830        20 UA        1714 N24211  LGA    IAH        227
##  3  2013     1     1      542            540         2      923            850        33 AA        1141 N619AA  JFK    MIA        160
##  4  2013     1     1      544            545        -1     1004           1022       -18 B6         725 N804JB  JFK    BQN        183
##  5  2013     1     1      554            600        -6      812            837       -25 DL         461 N668DN  LGA    ATL        116
##  6  2013     1     1      554            558        -4      740            728        12 UA        1696 N39463  EWR    ORD        150
##  7  2013     1     1      555            600        -5      913            854        19 B6         507 N516JB  EWR    FLL        158
##  8  2013     1     1      557            600        -3      709            723       -14 EV        5708 N829AS  LGA    IAD         53
##  9  2013     1     1      557            600        -3      838            846        -8 B6          79 N593JB  JFK    MCO        140
## 10  2013     1     1      558            600        -2      753            745         8 AA         301 N3ALAA  LGA    ORD        138
## # ... with 832 more rows, and 4 more variables: distance <dbl>, hour <dbl>, minute <dbl>, time_hour <dttm>
…
boolean operations

filter(flights, month == 11 | month == 12)

## # A tibble: 55,403 x 19
##     year month   day dep_time sched_dep_time dep_delay arr_time sched_arr_time arr_delay carrier flight tailnum origin dest  air_time
##    <int> <int> <int>    <int>          <int>     <dbl>    <int>          <int>     <dbl> <chr>    <int> <chr>   <chr>  <chr>    <dbl>
##  1  2013    11     1        5           2359         6      352            345         7 B6         745 N568JB  JFK    PSE        205
##  2  2013    11     1       35           2250       105      123           2356        87 B6        1816 N353JB  JFK    SYR         36
##  3  2013    11     1      455            500        -5      641            651       -10 US        1895 N192UW  EWR    CLT         88
##  4  2013    11     1      539            545        -6      856            827        29 UA        1714 N38727  LGA    IAH        229
##  5  2013    11     1      542            545        -3      831            855       -24 AA        2243 N5CLAA  JFK    MIA        147
##  6  2013    11     1      549            600       -11      912            923       -11 UA         303 N595UA  JFK    SFO        359
##  7  2013    11     1      550            600       -10      705            659         6 US        2167 N748UW  LGA    DCA         57
##  8  2013    11     1      554            600        -6      659            701        -2 US        2134 N742PS  LGA    BOS         40
##  9  2013    11     1      554            600        -6      826            827        -1 DL         563 N912DE  LGA    ATL        126
## 10  2013    11     1      554            600        -6      749            751        -2 DL         731 N315NB  LGA    DTW         93
## # ... with 55,393 more rows, and 4 more variables: distance <dbl>, hour <dbl>, minute <dbl>, time_hour <dttm>

filter(flights, !(arr_delay > 120 | dep_delay > 120))

## # A tibble: 316,050 x 19
##     year month   day dep_time sched_dep_time dep_delay arr_time sched_arr_time arr_delay carrier flight tailnum origin dest  air_time
##    <int> <int> <int>    <int>          <int>     <dbl>    <int>          <int>     <dbl> <chr>    <int> <chr>   <chr>  <chr>    <dbl>
##  1  2013     1     1      517            515         2      830            819        11 UA        1545 N14228  EWR    IAH        227
##  2  2013     1     1      533            529         4      850            830        20 UA        1714 N24211  LGA    IAH        227
##  3  2013     1     1      542            540         2      923            850        33 AA        1141 N619AA  JFK    MIA        160
##  4  2013     1     1      544            545        -1     1004           1022       -18 B6         725 N804JB  JFK    BQN        183
##  5  2013     1     1      554            600        -6      812            837       -25 DL         461 N668DN  LGA    ATL        116
##  6  2013     1     1      554            558        -4      740            728        12 UA        1696 N39463  EWR    ORD        150
##  7  2013     1     1      555            600        -5      913            854        19 B6         507 N516JB  EWR    FLL        158
##  8  2013     1     1      557            600        -3      709            723       -14 EV        5708 N829AS  LGA    IAD         53
##  9  2013     1     1      557            600        -3      838            846        -8 B6          79 N593JB  JFK    MCO        140
## 10  2013     1     1      558            600        -2      753            745         8 AA         301 N3ALAA  LGA    ORD        138
## # ... with 316,040 more rows, and 4 more variables: distance <dbl>, hour <dbl>, minute <dbl>, time_hour <dttm>

2.9 Arrange rows

arrange(flights, year, month, day)

## # A tibble: 336,776 x 19
##     year month   day dep_time sched_dep_time dep_delay arr_time sched_arr_time arr_delay carrier flight tailnum origin dest  air_time
##    <int> <int> <int>    <int>          <int>     <dbl>    <int>          <int>     <dbl> <chr>    <int> <chr>   <chr>  <chr>    <dbl>
##  1  2013     1     1      517            515         2      830            819        11 UA        1545 N14228  EWR    IAH        227
##  2  2013     1     1      533            529         4      850            830        20 UA        1714 N24211  LGA    IAH        227
##  3  2013     1     1      542            540         2      923            850        33 AA        1141 N619AA  JFK    MIA        160
##  4  2013     1     1      544            545        -1     1004           1022       -18 B6         725 N804JB  JFK    BQN        183
##  5  2013     1     1      554            600        -6      812            837       -25 DL         461 N668DN  LGA    ATL        116
##  6  2013     1     1      554            558        -4      740            728        12 UA        1696 N39463  EWR    ORD        150
##  7  2013     1     1      555            600        -5      913            854        19 B6         507 N516JB  EWR    FLL        158
##  8  2013     1     1      557            600        -3      709            723       -14 EV        5708 N829AS  LGA    IAD         53
##  9  2013     1     1      557            600        -3      838            846        -8 B6          79 N593JB  JFK    MCO        140
## 10  2013     1     1      558            600        -2      753            745         8 AA         301 N3ALAA  LGA    ORD        138
## # ... with 336,766 more rows, and 4 more variables: distance <dbl>, hour <dbl>, minute <dbl>, time_hour <dttm>

arrange(flights, desc(dep_delay))

## # A tibble: 336,776 x 19
##     year month   day dep_time sched_dep_time dep_delay arr_time sched_arr_time arr_delay carrier flight tailnum origin dest  air_time
##    <int> <int> <int>    <int>          <int>     <dbl>    <int>          <int>     <dbl> <chr>    <int> <chr>   <chr>  <chr>    <dbl>
##  1  2013     1     9      641            900      1301     1242           1530      1272 HA          51 N384HA  JFK    HNL        640
##  2  2013     6    15     1432           1935      1137     1607           2120      1127 MQ        3535 N504MQ  JFK    CMH         74
##  3  2013     1    10     1121           1635      1126     1239           1810      1109 MQ        3695 N517MQ  EWR    ORD        111
##  4  2013     9    20     1139           1845      1014     1457           2210      1007 AA         177 N338AA  JFK    SFO        354
##  5  2013     7    22      845           1600      1005     1044           1815       989 MQ        3075 N665MQ  JFK    CVG         96
##  6  2013     4    10     1100           1900       960     1342           2211       931 DL        2391 N959DL  JFK    TPA        139
##  7  2013     3    17     2321            810       911      135           1020       915 DL        2119 N927DA  LGA    MSP        167
##  8  2013     6    27      959           1900       899     1236           2226       850 DL        2007 N3762Y  JFK    PDX        313
##  9  2013     7    22     2257            759       898      121           1026       895 DL        2047 N6716C  LGA    ATL        109
## 10  2013    12     5      756           1700       896     1058           2020       878 AA         172 N5DMAA  EWR    MIA        149
## # ... with 336,766 more rows, and 4 more variables: distance <dbl>, hour <dbl>, minute <dbl>, time_hour <dttm>

NOTE: missing values are located at the end

2.10 Select columns

select(flights, year, month, day)

## # A tibble: 336,776 x 3
##     year month   day
##    <int> <int> <int>
##  1  2013     1     1
##  2  2013     1     1
##  3  2013     1     1
##  4  2013     1     1
##  5  2013     1     1
##  6  2013     1     1
##  7  2013     1     1
##  8  2013     1     1
##  9  2013     1     1
## 10  2013     1     1
## # ... with 336,766 more rows

select(flights, year:day)

## # A tibble: 336,776 x 3
##     year month   day
##    <int> <int> <int>
##  1  2013     1     1
##  2  2013     1     1
##  3  2013     1     1
##  4  2013     1     1
##  5  2013     1     1
##  6  2013     1     1
##  7  2013     1     1
##  8  2013     1     1
##  9  2013     1     1
## 10  2013     1     1
## # ... with 336,766 more rows

select(flights, -(year:day))

## # A tibble: 336,776 x 16
##    dep_time sched_dep_time dep_delay arr_time sched_arr_time arr_delay carrier flight tailnum origin dest  air_time distance  hour minute
##       <int>          <int>     <dbl>    <int>          <int>     <dbl> <chr>    <int> <chr>   <chr>  <chr>    <dbl>    <dbl> <dbl>  <dbl>
##  1      517            515         2      830            819        11 UA        1545 N14228  EWR    IAH        227     1400     5     15
##  2      533            529         4      850            830        20 UA        1714 N24211  LGA    IAH        227     1416     5     29
##  3      542            540         2      923            850        33 AA        1141 N619AA  JFK    MIA        160     1089     5     40
##  4      544            545        -1     1004           1022       -18 B6         725 N804JB  JFK    BQN        183     1576     5     45
##  5      554            600        -6      812            837       -25 DL         461 N668DN  LGA    ATL        116      762     6      0
##  6      554            558        -4      740            728        12 UA        1696 N39463  EWR    ORD        150      719     5     58
##  7      555            600        -5      913            854        19 B6         507 N516JB  EWR    FLL        158     1065     6      0
##  8      557            600        -3      709            723       -14 EV        5708 N829AS  LGA    IAD         53      229     6      0
##  9      557            600        -3      838            846        -8 B6          79 N593JB  JFK    MCO        140      944     6      0
## 10      558            600        -2      753            745         8 AA         301 N3ALAA  LGA    ORD        138      733     6      0
## # ... with 336,766 more rows, and 1 more variable: time_hour <dttm>
…
2.11 Add new variables

flights_sml <- select(flights, 
  year:day, 
  ends_with("delay"), 
  distance, 
  air_time
)
mutate(flights_sml,
  gain = dep_delay - arr_delay,
  speed = distance / air_time * 60
)

## # A tibble: 336,776 x 9
##     year month   day dep_delay arr_delay distance air_time  gain speed
##    <int> <int> <int>     <dbl>     <dbl>    <dbl>    <dbl> <dbl> <dbl>
##  1  2013     1     1         2        11     1400      227    -9  370.
##  2  2013     1     1         4        20     1416      227   -16  374.
##  3  2013     1     1         2        33     1089      160   -31  408.
##  4  2013     1     1        -1       -18     1576      183    17  517.
##  5  2013     1     1        -6       -25      762      116    19  394.
##  6  2013     1     1        -4        12      719      150   -16  288.
##  7  2013     1     1        -5        19     1065      158   -24  404.
##  8  2013     1     1        -3       -14      229       53    11  259.
##  9  2013     1     1        -3        -8      944      140     5  405.
## 10  2013     1     1        -2         8      733      138   -10  319.
## # ... with 336,766 more rows
…
